0.596662	0.596662
0.602736	0.602736
0.594015	0.594015
0.625848	0.609479
0.596662	0.596662
0.596662	0.596662
0.599146	0.599146
0.596662	0.596662
0.263667	0.592095
0.622845	0.594982
0.609970	0.609970
0.594015	0.594015
0.592095	0.592095
0.602736	0.602736
0.609970	0.609970
0.594015	0.594015
0.683992	0.602652
0.610926	0.601605
0.594015	0.594015
0.597599	0.593251
0.593251	0.593251
0.594015	0.594015
0.604471	0.604471
0.593251	0.593251
0.594015	0.594015
0.602736	0.602736
0.593251	0.593251
0.592095	0.592095
0.604471	0.604471
1.127362	0.601981
0.626889	0.594982
0.604471	0.604471
0.594015	0.594015
0.596662	0.596662
0.593251	0.593251
0.596662	0.596662
0.604471	0.604471
0.599146	0.599146
0.593251	0.593251
0.592095	0.592095
0.599146	0.599146
0.594015	0.594015
0.594790	0.594790
0.604471	0.604471
0.592095	0.592095
0.593251	0.593251
0.604471	0.604471
0.592095	0.592095
0.594015	0.594015
0.594015	0.594015
0.594015	0.594015
0.596662	0.596662
0.594015	0.594015
0.592095	0.592095
0.604043	0.604043
0.596662	0.596662
0.596378	0.596378
0.592865	0.591211
0.599146	0.599146
0.592095	0.592095
0.592095	0.592095
0.609649	0.609479
0.602736	0.602736
0.596378	0.596378
0.592095	0.592095
0.592095	0.592095
0.592095	0.592095
0.594015	0.594015
0.593251	0.593251
0.599146	0.599146
0.599146	0.599146
0.596378	0.596378
0.777367	0.609479
0.594015	0.594015
0.599146	0.599146
0.678459	0.591211
0.594015	0.594015
0.604471	0.604471
0.592095	0.592095
0.593251	0.593251
0.599146	0.599146
0.602736	0.602736
0.609970	0.609970
0.602736	0.602736
0.780429	0.593251
0.602736	0.602736
0.596378	0.596378
0.596662	0.596662
0.593251	0.593251
0.604471	0.604471
0.593251	0.593251
0.594015	0.594015
0.845606	0.594982
0.599146	0.599146
0.183492	0.594790
0.604471	0.604471
0.599146	0.599146
0.674215	0.601981
0.604471	0.604471
0.592095	0.592095
0.592095	0.592095
0.593251	0.593251
0.602736	0.602736
0.604471	0.604471
0.604471	0.604471
0.591429	0.591429
0.604471	0.604471
0.602736	0.602736
0.680823	0.605311
0.593251	0.593251
0.604043	0.604043
0.594015	0.594015
0.599146	0.599146
0.593251	0.593251
0.604471	0.604471
0.599146	0.599146
0.183492	0.594790
1.158748	0.609479
0.593251	0.593251
0.596378	0.596378
0.594790	0.594790
0.599146	0.599146
-0.046391	0.604043
0.946849	0.605311
0.592095	0.592095
0.594015	0.594015
0.604471	0.604471
0.594015	0.594015
0.591429	0.591429
0.596378	0.596378
0.602736	0.602736
0.594015	0.594015
0.592095	0.592095
1.109410	0.608001
0.977919	0.605311
0.604471	0.604471
0.596378	0.596378
0.596378	0.596378
0.593251	0.593251
0.596378	0.596378
0.763474	0.593251
0.593251	0.593251
0.594015	0.594015
0.593251	0.593251
0.599146	0.599146
0.604471	0.604471
0.602736	0.602736
0.609970	0.609970
0.596378	0.596378
0.715080	0.601981
0.596378	0.596378
0.596378	0.596378
0.594015	0.594015
0.604471	0.604471
0.591429	0.591429
0.599146	0.599146
0.604043	0.604043
0.604471	0.604471
0.599146	0.599146
0.205946	0.594982
0.600257	0.594790
0.702987	0.596972
0.593251	0.593251
0.593251	0.593251
0.596378	0.596378
0.643639	0.595589
0.596378	0.596378
0.604471	0.604471
0.593251	0.593251
0.241425	0.609479
0.604146	0.591429
0.594015	0.594015
0.602736	0.602736
0.592095	0.592095
0.596378	0.596378
0.604471	0.604471
0.604471	0.604471
0.609970	0.609970
0.594015	0.594015
0.664066	0.608001
0.596378	0.596378
0.594015	0.594015
0.599146	0.599146
0.596662	0.596662
0.593251	0.593251
0.968795	0.601605
0.596378	0.596378
0.596662	0.596662
0.593251	0.593251
0.596662	0.596662
0.596662	0.596662
0.596662	0.596662
0.596378	0.596378
0.593251	0.593251
0.604471	0.604471
0.596662	0.596662
0.655999	0.596662
0.604471	0.604471
0.593251	0.593251
0.594015	0.594015
0.596662	0.596662
0.594015	0.594015
0.593251	0.593251
0.609970	0.609970
0.599146	0.599146
0.604471	0.604471
0.599146	0.599146
0.594015	0.594015
0.604471	0.604471
0.594015	0.594015
0.596662	0.596662
0.594015	0.594015
0.593251	0.593251
0.599146	0.599146
0.593251	0.593251
0.609970	0.609970
0.596378	0.596378
0.593251	0.593251
0.594015	0.594015
0.599146	0.599146
0.651849	0.594790
0.598365	0.595589
0.599146	0.599146
0.592095	0.592095
0.596378	0.596378
0.604043	0.604043
0.593251	0.593251
0.593251	0.593251
0.594015	0.594015
0.594015	0.594015
1.117920	0.605311
0.592095	0.592095
0.593251	0.593251
0.604471	0.604471
0.596378	0.596378
0.604043	0.604043
0.683638	0.591429
0.621621	0.602652
0.596378	0.596378
0.609970	0.609970
0.604471	0.604471
0.596378	0.596378
0.596662	0.596662
0.867982	0.601981
0.594790	0.594790
0.604986	0.601981
0.604471	0.604471
0.594015	0.594015
0.604471	0.604471
0.591429	0.591429
0.599146	0.599146
0.596378	0.596378
0.709591	0.609970
0.593251	0.593251
0.592095	0.592095
0.592095	0.592095
0.591429	0.591429
0.609970	0.609970
0.613787	0.596662
0.593251	0.593251
0.595435	0.594982
0.686074	0.591429
0.596378	0.596378
0.604471	0.604471
0.599146	0.599146
0.594015	0.594015
0.604471	0.604471
0.593251	0.593251
0.649826	0.596972
0.599146	0.599146
0.609970	0.609970
1.254721	0.601986
0.595589	0.595589
0.594015	0.594015
0.879178	0.594982
0.443614	0.592095
0.593251	0.593251
0.592095	0.592095
0.596378	0.596378
0.596662	0.596662
0.602736	0.602736
0.593251	0.593251
0.604471	0.604471
0.592095	0.592095
0.596378	0.596378
0.627152	0.596972
0.596378	0.596378
0.591429	0.591429
0.604471	0.604471
0.650219	0.591211
0.619821	0.602736
0.604471	0.604471
0.596378	0.596378
0.599146	0.599146
0.594015	0.594015
0.596378	0.596378
0.609970	0.609970
0.596378	0.596378
0.596378	0.596378
0.594015	0.594015
0.604471	0.604471
0.592095	0.592095
0.593251	0.593251
0.601609	0.594982
0.594015	0.594015
0.594015	0.594015
0.763474	0.593251
1.254492	0.601981
0.596662	0.596662
0.599146	0.599146
0.593251	0.593251
1.641064	0.594790
0.599146	0.599146
0.602736	0.602736
0.596378	0.596378
0.596378	0.596378
0.703720	0.609479
0.593251	0.593251
0.604471	0.604471
0.602736	0.602736
0.609970	0.609970
0.604471	0.604471
0.594015	0.594015
0.594015	0.594015
0.985133	0.609479
0.594015	0.594015
0.604471	0.604471
0.596662	0.596662
0.599146	0.599146
0.593251	0.593251
0.604043	0.604043
0.596378	0.596378
0.594015	0.594015
0.596662	0.596662
1.658021	0.591211
0.627731	0.601605
0.599146	0.599146
0.594790	0.594790
1.465806	0.609479
0.602736	0.602736
0.593251	0.593251
0.596378	0.596378
0.602736	0.602736
0.596378	0.596378
0.604471	0.604471
0.604043	0.604043
0.596662	0.596662
0.593251	0.593251
0.594015	0.594015
0.592095	0.592095
0.596378	0.596378
0.594015	0.594015
0.594790	0.594790
0.599146	0.599146
0.602736	0.602736
0.592095	0.592095
0.729435	0.595589
0.596662	0.596662
0.771227	0.601986
0.730950	0.593251
0.596662	0.596662
0.596378	0.596378
0.604471	0.604471
0.594015	0.594015
0.604471	0.604471
0.599146	0.599146
0.604471	0.604471
0.602736	0.602736
0.594015	0.594015
0.611608	0.593251
0.593251	0.593251
0.592095	0.592095
0.592095	0.592095
0.604043	0.604043
0.602736	0.602736
0.602736	0.602736
0.609970	0.609970
0.591429	0.591429
0.594015	0.594015
0.596378	0.596378
0.602736	0.602736
0.958872	0.604043
0.592095	0.592095
0.609440	0.608001
0.668811	0.596972
0.596662	0.596662
0.592095	0.592095
0.593251	0.593251
0.879489	0.601981
0.596378	0.596378
0.596662	0.596662
0.594015	0.594015
0.604043	0.604043
0.599146	0.599146
0.593251	0.593251
0.596378	0.596378
0.593251	0.593251
0.594015	0.594015
0.604471	0.604471
0.858755	0.608001
0.604471	0.604471
0.592493	0.591429
0.592095	0.592095
0.604471	0.604471
0.596378	0.596378
0.593251	0.593251
0.599146	0.599146
0.592095	0.592095
0.623832	0.593251
0.594015	0.594015
0.593251	0.593251
0.987578	0.602736
0.596378	0.596378
0.705644	0.601605
0.784960	0.593251
0.604471	0.604471
0.748890	0.593251
0.599146	0.599146
0.596378	0.596378
0.592095	0.592095
0.604471	0.604471
0.591429	0.591429
0.594015	0.594015
0.599146	0.599146
0.775433	0.601981
0.594015	0.594015
0.594015	0.594015
0.985943	0.596972
0.649993	0.604043
0.609970	0.609970
0.596378	0.596378
0.594790	0.594790
1.233187	0.601605
0.596378	0.596378
0.594015	0.594015
0.609970	0.609970
0.596378	0.596378
0.592095	0.592095
0.591846	0.591429
0.604471	0.604471
1.122072	0.591211
0.591429	0.591429
0.591429	0.591429
0.594015	0.594015
0.609970	0.609970
0.602736	0.602736
0.604471	0.604471
0.591846	0.591429
0.594790	0.594790
0.609449	0.602652
0.591429	0.591429
0.599146	0.599146
0.594790	0.594790
0.726469	0.601986
0.593251	0.593251
0.602736	0.602736
0.599146	0.599146
0.593251	0.593251
1.028184	0.605311
-0.037730	0.594790
0.604471	0.604471
0.613239	0.605311
0.604471	0.604471
0.604471	0.604471
0.604471	0.604471
0.592095	0.592095
0.594790	0.594790
0.604471	0.604471
0.599146	0.599146
0.604043	0.604043
0.594015	0.594015
0.604043	0.604043
0.594015	0.594015
1.153847	0.602736
0.599146	0.599146
0.593251	0.593251
0.888142	0.596972
0.593251	0.593251
0.670388	0.591429
0.604471	0.604471
0.592095	0.592095
0.593251	0.593251
0.594015	0.594015
0.594015	0.594015
0.602736	0.602736
0.594015	0.594015
0.596378	0.596378
0.602736	0.602736
0.822278	0.593251
0.602736	0.602736
0.592095	0.592095
0.594790	0.594790
0.593251	0.593251
0.594015	0.594015
0.609970	0.609970
0.609970	0.609970
0.604471	0.604471
0.596378	0.596378
0.592095	0.592095
0.596662	0.596662
0.593251	0.593251
0.592095	0.592095
0.596662	0.596662
0.604471	0.604471
0.604471	0.604471
0.594015	0.594015
0.596378	0.596378
0.591429	0.591429
0.604043	0.604043
0.594015	0.594015
0.599146	0.599146
0.593251	0.593251
0.604471	0.604471
0.609970	0.609970
0.599146	0.599146
0.599146	0.599146
0.782247	0.601986
0.593251	0.593251
0.599146	0.599146
0.596662	0.596662
0.596378	0.596378
0.621878	0.596662
0.593251	0.593251
0.602736	0.602736
0.592095	0.592095
0.660473	0.595589
0.599146	0.599146
0.862695	0.593251
0.596378	0.596378
0.591429	0.591429
0.592095	0.592095
0.604043	0.604043
0.594790	0.594790
0.604471	0.604471
0.604471	0.604471
0.596378	0.596378
0.604471	0.604471
0.604471	0.604471
0.594015	0.594015
0.604471	0.604471
0.594015	0.594015
0.626853	0.592095
0.604471	0.604471
0.599146	0.599146
0.604043	0.604043
0.649826	0.596972
0.592095	0.592095
0.604471	0.604471
0.609970	0.609970
0.455328	0.594015
0.599146	0.599146
0.594015	0.594015
0.593251	0.593251
0.593251	0.593251
0.592095	0.592095
0.604471	0.604471
0.594790	0.594790
0.594015	0.594015
0.602707	0.601981
0.596378	0.596378
0.596378	0.596378
0.602406	0.601986
0.596662	0.596662
0.731917	0.596662
0.604471	0.604471
0.592095	0.592095
0.593251	0.593251
0.613423	0.594982
0.592095	0.592095
0.592095	0.592095
0.599146	0.599146
0.609970	0.609970
0.592095	0.592095
0.594015	0.594015
0.604471	0.604471
0.592095	0.592095
0.596662	0.596662
0.605485	0.601986
0.593251	0.593251
0.596378	0.596378
0.604471	0.604471
0.602736	0.602736
0.700331	0.595589
0.596378	0.596378
0.594015	0.594015
0.594015	0.594015
0.746302	0.609479
0.593251	0.593251
0.735292	0.609479
0.592095	0.592095
0.594790	0.594790
0.618685	0.594982
0.640844	0.609479
0.604471	0.604471
0.593251	0.593251
0.604471	0.604471
0.594015	0.594015
0.596662	0.596662
0.591429	0.591429
0.593251	0.593251
0.596378	0.596378
0.609970	0.609970
0.618118	0.591429
0.596662	0.596662
0.602736	0.602736
0.596378	0.596378
0.599146	0.599146
0.596662	0.596662
0.592095	0.592095
0.593251	0.593251
0.609970	0.609970
0.594015	0.594015
0.609970	0.609970
0.604043	0.604043
0.766978	0.595589
0.599146	0.599146
0.592095	0.592095
0.592095	0.592095
0.599146	0.599146
0.604043	0.604043
0.592095	0.592095
0.596378	0.596378
0.629017	0.609479
0.599146	0.599146
0.594015	0.594015
0.594015	0.594015
0.596662	0.596662
0.592095	0.592095
0.596378	0.596378
0.599146	0.599146
0.594015	0.594015
0.594015	0.594015
0.596662	0.596662
0.594015	0.594015
0.596378	0.596378
0.594015	0.594015
0.604471	0.604471
0.604471	0.604471
0.926458	0.594790
0.596378	0.596378
0.600307	0.594015
0.591429	0.591429
0.609970	0.609970
0.593251	0.593251
0.604471	0.604471
0.601986	0.601986
0.596378	0.596378
0.609970	0.609970
0.596662	0.596662
0.594790	0.594790
0.724948	0.591211
0.718016	0.609479
0.599146	0.599146
0.730866	0.601605
0.602736	0.602736
0.596662	0.596662
0.596662	0.596662
0.594015	0.594015
0.602736	0.602736
1.157583	0.594982
0.716947	0.602652
0.594015	0.594015
0.604471	0.604471
0.609970	0.609970
0.701111	0.594982
0.592095	0.592095
0.594015	0.594015
0.602736	0.602736
0.599146	0.599146
0.599146	0.599146
0.593251	0.593251
0.599146	0.599146
0.596378	0.596378
0.604471	0.604471
0.592095	0.592095
0.604471	0.604471
0.593251	0.593251
0.596662	0.596662
0.609970	0.609970
0.592095	0.592095
0.594015	0.594015
0.606391	0.601981
0.594790	0.594790
0.609970	0.609970
0.599146	0.599146
0.607665	0.601981
0.592095	0.592095
0.594790	0.594790
0.161289	0.594982
0.594015	0.594015
1.311084	0.596972
0.753279	0.601605
0.627636	0.605311
0.596378	0.596378
0.592095	0.592095
0.641522	0.596972
0.803897	0.593251
0.621005	0.591211
0.596378	0.596378
0.912368	0.604043
0.599146	0.599146
0.604471	0.604471
0.593251	0.593251
0.604471	0.604471
0.609970	0.609970
0.599146	0.599146
0.592095	0.592095
0.593251	0.593251
0.596824	0.595589
0.609970	0.609970
0.596378	0.596378
0.604471	0.604471
0.592095	0.592095
0.594015	0.594015
0.609970	0.609970
0.774134	0.609479
0.596662	0.596662
0.594015	0.594015
0.416624	0.594790
0.594015	0.594015
0.602736	0.602736
0.596662	0.596662
0.604471	0.604471
0.604471	0.604471
1.097250	0.601981
0.593251	0.593251
0.596378	0.596378
0.599146	0.599146
0.594015	0.594015
0.596662	0.596662
0.596378	0.596378
0.732425	0.608001
0.592095	0.592095
0.599146	0.599146
0.593251	0.593251
0.596378	0.596378
0.594015	0.594015
0.602736	0.602736
0.592095	0.592095
0.883254	0.609479
0.599146	0.599146
0.594015	0.594015
0.618394	0.609479
0.690791	0.596972
0.592095	0.592095
0.593251	0.593251
1.186665	0.591211
0.594790	0.594790
0.604471	0.604471
0.596378	0.596378
0.596378	0.596378
0.604471	0.604471
0.591429	0.591429
0.602736	0.602736
0.593251	0.593251
0.592095	0.592095
0.594015	0.594015
0.738894	0.601605
1.111266	0.602652
0.602736	0.602736
0.596662	0.596662
0.604043	0.604043
0.594015	0.594015
0.596662	0.596662
0.599146	0.599146
0.609970	0.609970
0.596378	0.596378
0.604242	0.601981
0.593251	0.593251
0.596662	0.596662
0.592095	0.592095
0.602736	0.602736
0.593251	0.593251
0.596378	0.596378
0.594015	0.594015
0.599146	0.599146
0.594015	0.594015
0.609970	0.609970
0.592095	0.592095
0.599146	0.599146
0.592095	0.592095
0.594015	0.594015
0.602736	0.602736
0.594015	0.594015
0.680823	0.594790
0.599146	0.599146
0.591429	0.591429
0.604043	0.604043
0.879833	0.609479
0.604471	0.604471
0.596378	0.596378
0.604471	0.604471
0.713364	0.594982
0.591429	0.591429
0.604471	0.604471
0.593251	0.593251
0.677200	0.601981
0.596662	0.596662
0.596378	0.596378
1.311139	0.605311
0.594015	0.594015
0.593251	0.593251
0.596378	0.596378
0.592095	0.592095
0.599146	0.599146
0.599146	0.599146
1.141190	0.591429
0.596662	0.596662
0.773393	0.601605
0.939568	0.595589
0.594015	0.594015
0.594790	0.594790
0.594790	0.594790
0.604471	0.604471
0.031732	0.601605
0.599146	0.599146
0.596662	0.596662
0.592095	0.592095
0.593251	0.593251
-0.053063	0.602652
0.594015	0.594015
0.602888	0.593251
0.604471	0.604471
0.594015	0.594015
0.612232	0.602652
0.594015	0.594015
0.604471	0.604471
0.609970	0.609970
0.593251	0.593251
0.609970	0.609970
0.594015	0.594015
0.594015	0.594015
0.593251	0.593251
0.592095	0.592095
0.609970	0.609970
0.594015	0.594015
0.602736	0.602736
0.629931	0.591211
0.604471	0.604471
0.602736	0.602736
0.668826	0.593251
0.597602	0.594982
0.593251	0.593251
0.602736	0.602736
0.594015	0.594015
0.594015	0.594015
1.456706	0.605311
0.594015	0.594015
0.599146	0.599146
0.594860	0.591429
0.604471	0.604471
0.596662	0.596662
0.602736	0.602736
0.621567	0.594982
0.604471	0.604471
0.604471	0.604471
0.592095	0.592095
0.604471	0.604471
0.596378	0.596378
0.596378	0.596378
0.602629	0.594982
0.596662	0.596662
0.592095	0.592095
0.604471	0.604471
0.596378	0.596378
0.594790	0.594790
0.607335	0.601605
0.594015	0.594015
0.604471	0.604471
0.609970	0.609970
0.642928	0.609479
0.602736	0.602736
0.609970	0.609970
0.594015	0.594015
0.599146	0.599146
0.602736	0.602736
0.620906	0.601605
0.604471	0.604471
0.604471	0.604471
0.609970	0.609970
0.599146	0.599146
0.596378	0.596378
0.732126	0.591429
0.593251	0.593251
0.596378	0.596378
0.593251	0.593251
0.599146	0.599146
0.596378	0.596378
0.599146	0.599146
0.592095	0.592095
0.594015	0.594015
0.604043	0.604043
0.593251	0.593251
0.609970	0.609970
0.594015	0.594015
0.596662	0.596662
0.593251	0.593251
0.776677	0.594982
0.596662	0.596662
0.594790	0.594790
0.594790	0.594790
0.599146	0.599146
0.899638	0.601981
0.596662	0.596662
0.609970	0.609970
0.594015	0.594015
0.609970	0.609970
0.602736	0.602736
0.604471	0.604471
0.594015	0.594015
0.599146	0.599146
0.594015	0.594015
0.593251	0.593251
0.604471	0.604471
0.599146	0.599146
0.594015	0.594015
0.592095	0.592095
0.592095	0.592095
0.594015	0.594015
0.609970	0.609970
0.593251	0.593251
0.593251	0.593251
0.604471	0.604471
0.602736	0.602736
0.602736	0.602736
0.700095	0.601986
0.594015	0.594015
0.594790	0.594790
0.609970	0.609970
0.599146	0.599146
0.596662	0.596662
0.594015	0.594015
0.593251	0.593251
0.592095	0.592095
0.612022	0.602652
0.604471	0.604471
0.593251	0.593251
0.821743	0.608001
0.593251	0.593251
0.592095	0.592095
0.593251	0.593251
0.599146	0.599146
0.599146	0.599146
0.593251	0.593251
0.594015	0.594015
0.596662	0.596662
0.602736	0.602736
0.593251	0.593251
0.602736	0.602736
0.604471	0.604471
0.594015	0.594015
0.604471	0.604471
0.594790	0.594790
0.594015	0.594015
0.607809	0.601605
0.594015	0.594015
0.604043	0.604043
0.593251	0.593251
0.602117	0.601605
0.593251	0.593251
0.604471	0.604471
0.596378	0.596378
0.596378	0.596378
0.604471	0.604471
0.676134	0.602652
0.593251	0.593251
0.596662	0.596662
0.593251	0.593251
0.596378	0.596378
0.612751	0.609479
0.592095	0.592095
0.604043	0.604043
0.593251	0.593251
0.592095	0.592095
0.602736	0.602736
0.594790	0.594790
0.599146	0.599146
0.594015	0.594015
0.596662	0.596662
0.592095	0.592095
0.594015	0.594015
0.859600	0.609479
0.594015	0.594015
0.604471	0.604471
0.606033	0.605311
0.592095	0.592095
0.596662	0.596662
0.596662	0.596662
0.604471	0.604471
0.630745	0.601981
0.599146	0.599146
0.596378	0.596378
0.593251	0.593251
0.604471	0.604471
0.596661	0.593251
0.929553	0.591429
0.599146	0.599146
0.599146	0.599146
0.592095	0.592095
0.594015	0.594015
0.604471	0.604471
0.596662	0.596662
0.593251	0.593251
0.596378	0.596378
0.596662	0.596662
0.710565	0.605311
1.049743	0.601986
0.602736	0.602736
0.604043	0.604043
0.596662	0.596662
0.593251	0.593251
0.593251	0.593251
0.608868	0.602652
0.596662	0.596662
0.596378	0.596378
0.596378	0.596378
0.596378	0.596378
0.599146	0.599146
0.594790	0.594790
0.604471	0.604471
0.596662	0.596662
0.604043	0.604043
0.594015	0.594015
0.612469	0.605311
0.604043	0.604043
0.593251	0.593251
0.592095	0.592095
0.604471	0.604471
0.594015	0.594015
0.592095	0.592095
0.594015	0.594015
0.602736	0.602736
0.604471	0.604471
0.593251	0.593251
0.604471	0.604471
0.652903	0.601981
0.596378	0.596378
0.592095	0.592095
0.596378	0.596378
0.604043	0.604043
0.592095	0.592095
0.604043	0.604043
0.604471	0.604471
0.599146	0.599146
0.596662	0.596662
0.609970	0.609970
0.599146	0.599146
0.593251	0.593251
0.604471	0.604471
0.600290	0.593251
0.599146	0.599146
0.596378	0.596378
1.166654	0.604043
0.593251	0.593251
0.602736	0.602736
0.593251	0.593251
-0.029425	0.592095
0.822278	0.593251
0.594015	0.594015
0.602736	0.602736
0.594015	0.594015
0.594790	0.594790
0.624618	0.594982
0.604471	0.604471
0.684008	0.602652
0.596378	0.596378
0.604471	0.604471
0.604471	0.604471
0.596662	0.596662
0.599146	0.599146
0.594015	0.594015
0.602736	0.602736
0.607031	0.602652
0.856861	0.595589
0.596378	0.596378
0.714673	0.594982
1.118887	0.602652
0.594015	0.594015
0.604471	0.604471
0.596662	0.596662
0.594790	0.594790
0.594015	0.594015
1.392517	0.601981
0.661332	0.605311
0.592095	0.592095
0.605153	0.601981
0.596662	0.596662
0.594790	0.594790
0.592095	0.592095
0.604471	0.604471
0.681185	0.601605
0.594790	0.594790
0.596378	0.596378
0.128141	0.592095
0.594015	0.594015
0.602736	0.602736
0.813924	0.602736
0.592095	0.592095
0.593251	0.593251
0.602736	0.602736
0.594015	0.594015
0.604471	0.604471
0.599146	0.599146
0.604471	0.604471
0.594015	0.594015
0.599146	0.599146
1.111623	0.594982
0.593251	0.593251
0.596662	0.596662
0.596662	0.596662
0.591900	0.591211
0.614246	0.601986
0.604471	0.604471
0.593251	0.593251
0.592095	0.592095
0.593251	0.593251
0.599146	0.599146
0.592095	0.592095
0.604471	0.604471
0.596378	0.596378
0.604471	0.604471
0.604471	0.604471
0.593251	0.593251
0.594015	0.594015
1.198222	0.593251
0.592095	0.592095
0.599146	0.599146
0.604471	0.604471
0.657312	0.601986
0.604043	0.604043
0.599146	0.599146
0.596378	0.596378
0.596378	0.596378
0.596378	0.596378
0.604471	0.604471
0.596378	0.596378
0.599146	0.599146
0.794233	0.602652
0.593251	0.593251
0.599146	0.599146
0.724538	0.596662
0.602736	0.602736
0.592095	0.592095
0.670724	0.601605
0.604471	0.604471
0.599146	0.599146
0.594790	0.594790
0.602736	0.602736
0.594790	0.594790
0.625204	0.601981
1.392529	0.609479
0.736589	0.604043
0.692662	0.609479
0.604471	0.604471
0.596378	0.596378
0.617686	0.609970
0.609970	0.609970
0.596662	0.596662
1.880601	0.601986
0.594015	0.594015
0.594015	0.594015
0.594790	0.594790
0.596378	0.596378
0.602736	0.602736
0.594790	0.594790
0.592095	0.592095
0.604043	0.604043
0.594015	0.594015
0.610574	0.591429
0.623560	0.609479
0.594015	0.594015
0.619171	0.601986
0.845483	0.601981
0.593251	0.593251
0.596378	0.596378
0.594015	0.594015
0.593251	0.593251
0.596378	0.596378
0.609970	0.609970
0.604043	0.604043
0.592095	0.592095
0.745192	0.605311
0.608405	0.608001
0.599146	0.599146
0.596378	0.596378
0.596662	0.596662
0.593251	0.593251
0.748965	0.609479
0.593251	0.593251
0.592095	0.592095
0.592095	0.592095
0.596378	0.596378
0.592095	0.592095
0.596662	0.596662
0.604471	0.604471
0.594790	0.594790
0.592095	0.592095
0.593251	0.593251
0.602736	0.602736
0.614349	0.608001
1.211381	0.593251
0.596662	0.596662
0.598724	0.596972
0.593251	0.593251
0.604471	0.604471
0.593251	0.593251
0.149155	0.609479
0.596378	0.596378
0.780494	0.596662
0.599146	0.599146
0.602736	0.602736
0.604471	0.604471
0.596378	0.596378
0.604471	0.604471
0.593251	0.593251
0.604043	0.604043
0.604471	0.604471
0.604471	0.604471
0.596662	0.596662
0.594015	0.594015
1.095414	0.595589
0.606666	0.596972
0.602736	0.602736
0.594015	0.594015
0.594015	0.594015
0.599146	0.599146
0.593251	0.593251
0.593251	0.593251
0.606742	0.602736
0.594015	0.594015
0.599146	0.599146
0.596378	0.596378
-0.041589	0.594790
0.592095	0.592095
0.702905	0.601981
0.604471	0.604471
0.614139	0.605311
0.609970	0.609970
0.594015	0.594015
0.593251	0.593251
0.594015	0.594015
0.599146	0.599146
0.609970	0.609970
0.594790	0.594790
0.602736	0.602736
0.592095	0.592095
0.602736	0.602736
0.604471	0.604471
0.742793	0.596972
0.604471	0.604471
0.593251	0.593251
0.596378	0.596378
0.680823	0.605311
0.591429	0.591429
0.596378	0.596378
0.593251	0.593251
1.139810	0.594982
0.591429	0.591429
0.777367	0.609479
0.593251	0.593251
0.593251	0.593251
0.594015	0.594015
0.604471	0.604471
0.594015	0.594015
0.596662	0.596662
0.596378	0.596378
0.604043	0.604043
0.599146	0.599146
0.592095	0.592095
0.592095	0.592095
0.591429	0.591429
0.593251	0.593251
0.604471	0.604471
0.596662	0.596662
1.130753	0.594790
0.594015	0.594015
0.593251	0.593251
0.596662	0.596662
0.594015	0.594015
0.602736	0.602736
0.599146	0.599146
0.593251	0.593251
0.594790	0.594790
0.599146	0.599146
0.592095	0.592095
0.593251	0.593251
0.604471	0.604471
1.541700	0.601986
0.593251	0.593251
0.604471	0.604471
0.596378	0.596378
0.609970	0.609970
0.602736	0.602736
0.599146	0.599146
0.594015	0.594015
0.596378	0.596378
0.592095	0.592095
0.592095	0.592095
0.593251	0.593251
0.640650	0.601981
0.594790	0.594790
0.604471	0.604471
0.596662	0.596662
0.594015	0.594015
0.599146	0.599146
0.593251	0.593251
0.602736	0.602736
0.596662	0.596662
0.602736	0.602736
0.609970	0.609970
0.593251	0.593251
0.592095	0.592095
0.596378	0.596378
0.602736	0.602736
0.593251	0.593251
0.604471	0.604471
0.594015	0.594015
0.596662	0.596662
0.604471	0.604471
0.599146	0.599146
0.606033	0.605311
0.603800	0.591429
0.594790	0.594790
1.021402	0.609479
0.732323	0.594982
0.602736	0.602736
0.162507	0.601981
0.596282	0.595589
0.594015	0.594015
0.593251	0.593251
0.594015	0.594015
0.594015	0.594015
0.592095	0.592095
0.593251	0.593251
0.591429	0.591429
0.602736	0.602736
1.395694	0.591429
0.592095	0.592095
0.592095	0.592095
0.594790	0.594790
0.604471	0.604471
0.604471	0.604471
0.591429	0.591429
0.596662	0.596662
0.594015	0.594015
0.609970	0.609970
0.593251	0.593251
0.752077	0.601986
0.604471	0.604471
0.596378	0.596378
0.594015	0.594015
0.593251	0.593251
0.594015	0.594015
0.711687	0.596972
0.596378	0.596378
0.593251	0.593251
0.593251	0.593251
0.596378	0.596378
0.609970	0.609970
0.594015	0.594015
0.596662	0.596662
0.594015	0.594015
0.735521	0.591211
0.593251	0.593251
0.592095	0.592095
0.593251	0.593251
0.596662	0.596662
0.604471	0.604471
0.602736	0.602736
0.594015	0.594015
0.604471	0.604471
0.599146	0.599146
0.602084	0.601981
0.596378	0.596378
0.593251	0.593251
0.604471	0.604471
0.599146	0.599146
0.594015	0.594015
0.592095	0.592095
0.594015	0.594015
0.602736	0.602736
0.593251	0.593251
0.602736	0.602736
0.599146	0.599146
0.594015	0.594015
0.753608	0.601605
0.609970	0.609970
0.596378	0.596378
0.715490	0.609479
0.623958	0.605311
0.596662	0.596662
0.599146	0.599146
0.609970	0.609970
0.596378	0.596378
0.132895	0.594982
0.599146	0.599146
0.604471	0.604471
0.592965	0.591211
0.591429	0.591429
0.594015	0.594015
0.594015	0.594015
0.604471	0.604471
0.604471	0.604471
0.596378	0.596378
0.592095	0.592095
0.596662	0.596662
0.741105	0.602652
0.592095	0.592095
0.599146	0.599146
0.596378	0.596378
0.599146	0.599146
0.593251	0.593251
0.596662	0.596662
0.709293	0.594790
0.822689	0.602652
0.594015	0.594015
0.602736	0.602736
0.594015	0.594015
0.599146	0.599146
0.591429	0.591429
0.594015	0.594015
0.599146	0.599146
0.935944	0.591429
0.609970	0.609970
0.594015	0.594015
0.604471	0.604471
0.594015	0.594015
0.608381	0.592095
0.599146	0.599146
0.593251	0.593251
0.604471	0.604471
0.595152	0.593251
0.642362	0.605311
0.602736	0.602736
0.604471	0.604471
0.604471	0.604471
0.599146	0.599146
0.593251	0.593251
0.602736	0.602736
0.604043	0.604043
0.594015	0.594015
0.604043	0.604043
0.593251	0.593251
0.602736	0.602736
0.599146	0.599146
0.604471	0.604471
0.599146	0.599146
0.604471	0.604471
0.599146	0.599146
0.593251	0.593251
0.604471	0.604471
0.596378	0.596378
0.599146	0.599146
0.604471	0.604471
0.593251	0.593251
0.602736	0.602736
0.593251	0.593251
0.609970	0.609970
0.593251	0.593251
0.596378	0.596378
0.596662	0.596662
0.983508	0.601981
0.604471	0.604471
0.602736	0.602736
0.622070	0.605311
0.916580	0.596972
0.599146	0.599146
0.639112	0.601986
0.599146	0.599146
0.596378	0.596378
0.594015	0.594015
0.591429	0.591429
0.596662	0.596662
0.594015	0.594015
0.594015	0.594015
1.002606	0.605311
0.602660	0.601986
0.599146	0.599146
0.602736	0.602736
0.594015	0.594015
0.594015	0.594015
0.596662	0.596662
0.604471	0.604471
0.604043	0.604043
0.596378	0.596378
0.798385	0.602652
0.674977	0.605311
0.594790	0.594790
0.738936	0.604471
0.593251	0.593251
0.594015	0.594015
0.609970	0.609970
0.592095	0.592095
0.599146	0.599146
0.602736	0.602736
0.609970	0.609970
0.800210	0.601605
0.593251	0.593251
0.609970	0.609970
0.609970	0.609970
0.624671	0.601981
0.593251	0.593251
0.604471	0.604471
0.632312	0.601986
0.596378	0.596378
0.609970	0.609970
0.833952	0.601986
0.594015	0.594015
0.609970	0.609970
0.592095	0.592095
0.604471	0.604471
0.862554	0.591211
0.604471	0.604471
0.593251	0.593251
0.596662	0.596662
0.593251	0.593251
0.594015	0.594015
0.596378	0.596378
0.593251	0.593251
0.743346	0.609479
0.596662	0.596662
0.594015	0.594015
0.599146	0.599146
0.591429	0.591429
1.276743	0.605311
0.592095	0.592095
0.596662	0.596662
0.593251	0.593251
0.602736	0.602736
0.593251	0.593251
0.898649	0.609970
0.652603	0.602652
0.631150	0.605311
0.593251	0.593251
0.604471	0.604471
0.593251	0.593251
0.594015	0.594015
0.596282	0.595589
0.594790	0.594790
0.593251	0.593251
0.593251	0.593251
0.599146	0.599146
0.735292	0.609479
0.612380	0.605311
0.604471	0.604471
0.594790	0.594790
0.599146	0.599146
0.599146	0.599146
0.594790	0.594790
0.596378	0.596378
0.596662	0.596662
0.609970	0.609970
0.596662	0.596662
0.604471	0.604471
0.592095	0.592095
0.604471	0.604471
0.604471	0.604471
0.594015	0.594015
0.592095	0.592095
0.596378	0.596378
0.663183	0.605311
0.592095	0.592095
0.599146	0.599146
1.095828	0.608001
0.592095	0.592095
0.762249	0.594790
0.593251	0.593251
0.591429	0.591429
0.594829	0.593251
0.604043	0.604043
0.596662	0.596662
0.619118	0.591211
0.591429	0.591429
0.599146	0.599146
0.857770	0.601605
0.604471	0.604471
0.693207	0.608001
0.591552	0.591211
0.604471	0.604471
0.594790	0.594790
0.594790	0.594790
0.819207	0.595589
0.615951	0.609479
0.599146	0.599146
0.594015	0.594015
0.932767	0.609479
0.604043	0.604043
0.594015	0.594015
0.594015	0.594015
0.593251	0.593251
0.609970	0.609970
0.594015	0.594015
0.929553	0.604043
0.599146	0.599146
0.602736	0.602736
0.609970	0.609970
0.594015	0.594015
0.594015	0.594015
0.594015	0.594015
0.604043	0.604043
0.602736	0.602736
0.596378	0.596378
0.593251	0.593251
0.625154	0.605311
0.592095	0.592095
0.654311	0.601986
0.043293	0.594982
0.594015	0.594015
0.609970	0.609970
0.599146	0.599146
1.265647	0.595589
0.716693	0.596972
0.593251	0.593251
0.602736	0.602736
0.729435	0.595589
0.604471	0.604471
0.604471	0.604471
0.592095	0.592095
0.594790	0.594790
0.601986	0.601986
0.594015	0.594015
0.602736	0.602736
0.593251	0.593251
0.594015	0.594015
0.596662	0.596662
0.592095	0.592095
0.593251	0.593251
0.596662	0.596662
0.726909	0.601986
0.596378	0.596378
0.593251	0.593251
0.604471	0.604471
0.609970	0.609970
0.679169	0.601986
1.105490	0.591429
0.609970	0.609970
0.626960	0.594982
0.592095	0.592095
0.594790	0.594790
0.592095	0.592095
0.599660	0.593251
0.604471	0.604471
0.599146	0.599146
0.594790	0.594790
0.594015	0.594015
0.604471	0.604471
0.604471	0.604471
0.662234	0.593251
0.596378	0.596378
0.618613	0.591429
0.592095	0.592095
0.609970	0.609970
0.599146	0.599146
0.596662	0.596662
0.604471	0.604471
0.596662	0.596662
0.594015	0.594015
0.599146	0.599146
1.119572	0.602736
0.594015	0.594015
0.599146	0.599146
0.594015	0.594015
0.593251	0.593251
0.599146	0.599146
0.599146	0.599146
0.599146	0.599146
0.178789	0.609479
1.134596	0.602652
0.602736	0.602736
0.788071	0.595589
0.609970	0.609970
0.596378	0.596378
0.594015	0.594015
0.609970	0.609970
0.591429	0.591429
0.594015	0.594015
0.594015	0.594015
0.592095	0.592095
0.659313	0.594982
0.594015	0.594015
0.596378	0.596378
0.593251	0.593251
0.736248	0.602652
0.596662	0.596662
0.594015	0.594015
0.596662	0.596662
0.730627	0.605311
0.593251	0.593251
0.604043	0.604043
0.604471	0.604471
0.594015	0.594015
0.594015	0.594015
0.616304	0.609479
0.596378	0.596378
0.594790	0.594790
1.117920	0.605311
0.604471	0.604471
0.593251	0.593251
0.593251	0.593251
0.596662	0.596662
0.596662	0.596662
1.050325	0.602652
0.594790	0.594790
0.604471	0.604471
0.609970	0.609970
0.591429	0.591429
0.601986	0.601986
0.596662	0.596662
0.593251	0.593251
0.593251	0.593251
0.593251	0.593251
0.609970	0.609970
0.604471	0.604471
0.619394	0.601981
0.634262	0.591429
0.604043	0.604043
0.612022	0.602652
0.593251	0.593251
0.596378	0.596378
0.604471	0.604471
0.604043	0.604043
0.604043	0.604043
0.649187	0.593251
0.594015	0.594015
0.596378	0.596378
0.593251	0.593251
0.599146	0.599146
0.596378	0.596378
0.593251	0.593251
0.594015	0.594015
0.599146	0.599146
0.599146	0.599146
0.592095	0.592095
0.604471	0.604471
0.604471	0.604471
0.697188	0.609970
0.599146	0.599146
0.633987	0.596972
0.599146	0.599146
0.642362	0.605311
0.592095	0.592095
0.596662	0.596662
0.593251	0.593251
0.596662	0.596662
0.594015	0.594015
0.604471	0.604471
0.713131	0.594790
0.593251	0.593251
0.592095	0.592095
0.594987	0.594982
0.594015	0.594015
0.596378	0.596378
0.596662	0.596662
0.811592	0.601986
0.602736	0.602736
0.592095	0.592095
0.594015	0.594015
0.604471	0.604471
0.594015	0.594015
0.602736	0.602736
0.596378	0.596378
0.594790	0.594790
0.599146	0.599146
1.276625	0.596972
0.604471	0.604471
0.596378	0.596378
0.599146	0.599146
0.594015	0.594015
0.604471	0.604471
0.702961	0.604043
0.594015	0.594015
0.604471	0.604471
0.609970	0.609970
0.624671	0.601981
0.596378	0.596378
0.594015	0.594015
0.604471	0.604471
0.930730	0.601981
0.594790	0.594790
0.604471	0.604471
0.593251	0.593251
0.604471	0.604471
0.592095	0.592095
0.594015	0.594015
0.596662	0.596662
0.596378	0.596378
0.592095	0.592095
0.602736	0.602736
0.787289	0.608001
0.594015	0.594015
0.604471	0.604471
0.602736	0.602736
0.591429	0.591429
0.604471	0.604471
0.682399	0.594982
0.599146	0.599146
0.591429	0.591429
0.609730	0.596972
0.604043	0.604043
0.594790	0.594790
0.651750	0.591429
0.594015	0.594015
0.594015	0.594015
0.593251	0.593251
0.599146	0.599146
0.604471	0.604471
0.602736	0.602736
0.612145	0.591429
0.648648	0.608001
0.596378	0.596378
0.596378	0.596378
0.596662	0.596662
0.596662	0.596662
0.593251	0.593251
0.596378	0.596378
1.084272	0.591211
0.599146	0.599146
0.853142	0.605311
0.604471	0.604471
0.604471	0.604471
0.593251	0.593251
0.594790	0.594790
0.596378	0.596378
0.596662	0.596662
0.604471	0.604471
0.595058	0.594982
0.602736	0.602736
1.465794	0.601981
0.604043	0.604043
0.602736	0.602736
0.604471	0.604471
0.634297	0.601986
0.592095	0.592095
0.592095	0.592095
0.596378	0.596378
0.718334	0.593251
0.596662	0.596662
0.593251	0.593251
0.915624	0.605311
0.596378	0.596378
0.594790	0.594790
0.596378	0.596378
0.604471	0.604471
0.594790	0.594790
0.912837	0.602736
1.487690	0.593251
0.596662	0.596662
0.594015	0.594015
0.604471	0.604471
0.594015	0.594015
0.609970	0.609970
0.596378	0.596378
0.594015	0.594015
0.602736	0.602736
1.079575	0.601986
0.593251	0.593251
0.592095	0.592095
1.201568	0.608001
0.604471	0.604471
0.593251	0.593251
0.771725	0.594790
0.596378	0.596378
0.609970	0.609970
0.593251	0.593251
0.594015	0.594015
1.419072	0.605311
0.594015	0.594015
0.596378	0.596378
0.596662	0.596662
0.593251	0.593251
0.592095	0.592095
0.620275	0.594790
0.593251	0.593251
0.594015	0.594015
0.591429	0.591429
0.609970	0.609970
0.594015	0.594015
0.594015	0.594015
0.599146	0.599146
0.592095	0.592095
0.596662	0.596662
0.602736	0.602736
0.604471	0.604471
0.594015	0.594015
0.591429	0.591429
0.596378	0.596378
0.610465	0.609970
0.599146	0.599146
0.594015	0.594015
0.593251	0.593251
0.743170	0.595589
0.592095	0.592095
0.596662	0.596662
0.601609	0.594982
0.599146	0.599146
1.299451	0.608001
0.604471	0.604471
0.599146	0.599146
0.604471	0.604471
0.596378	0.596378
0.604471	0.604471
0.627323	0.604043
0.604043	0.604043
0.604471	0.604471
0.602117	0.601605
0.596662	0.596662
0.596378	0.596378
0.602736	0.602736
0.594015	0.594015
0.604471	0.604471
0.593251	0.593251
0.715815	0.608001
0.594015	0.594015
0.596662	0.596662
0.604471	0.604471
0.604481	0.602652
0.925252	0.591211
0.604471	0.604471
0.602736	0.602736
0.596378	0.596378
0.594015	0.594015
0.602736	0.602736
0.596662	0.596662
0.593251	0.593251
0.592095	0.592095
0.599146	0.599146
0.593251	0.593251
0.594015	0.594015
0.664400	0.594790
0.599146	0.599146
0.596378	0.596378
0.648670	0.602736
0.609970	0.609970
0.594790	0.594790
0.594015	0.594015
0.873044	0.605311
0.596378	0.596378
0.604471	0.604471
0.614476	0.604471
0.596378	0.596378
0.602736	0.602736
0.594015	0.594015
0.599146	0.599146
0.593251	0.593251
0.594015	0.594015
0.593251	0.593251
0.610516	0.601986
0.596662	0.596662
0.596378	0.596378
0.602736	0.602736
0.594015	0.594015
0.596378	0.596378
0.594015	0.594015
0.594790	0.594790
0.604471	0.604471
0.655459	0.602652
0.602736	0.602736
0.596378	0.596378
1.367916	0.608001
0.593251	0.593251
0.596378	0.596378
0.593251	0.593251
0.592095	0.592095
0.599146	0.599146
0.592095	0.592095
0.596378	0.596378
0.659590	0.601986
0.592095	0.592095
0.835376	0.608001
0.609970	0.609970
0.593251	0.593251
0.616304	0.609479
0.604471	0.604471
0.593251	0.593251
0.609970	0.609970
0.594015	0.594015
0.609970	0.609970
0.592095	0.592095
0.692870	0.591211
0.604471	0.604471
0.747641	0.601981
0.604471	0.604471
0.594015	0.594015
0.594015	0.594015
0.609970	0.609970
0.592095	0.592095
0.829084	0.609479
0.679169	0.601986
0.594790	0.594790
0.593251	0.593251
0.602736	0.602736
0.592095	0.592095
0.592095	0.592095
0.596378	0.596378
0.599146	0.599146
0.593251	0.593251
0.592095	0.592095
0.609970	0.609970
0.594015	0.594015
0.594015	0.594015
0.596662	0.596662
0.769332	0.591211
0.599146	0.599146
0.592095	0.592095
0.592095	0.592095
0.604471	0.604471
0.593251	0.593251
0.594015	0.594015
0.605751	0.602652
0.591429	0.591429
0.593251	0.593251
0.599146	0.599146
0.594015	0.594015
0.607335	0.601605
0.602736	0.602736
0.591429	0.591429
0.596378	0.596378
0.591429	0.591429
0.593251	0.593251
0.596662	0.596662
0.593251	0.593251
0.602736	0.602736
0.604471	0.604471
0.604471	0.604471
0.602736	0.602736
0.594015	0.594015
0.054880	0.608001
0.609970	0.609970
0.604471	0.604471
0.599146	0.599146
0.593251	0.593251
0.604471	0.604471
0.596662	0.596662
0.609970	0.609970
0.646576	0.591429
0.602736	0.602736
0.594015	0.594015
0.897618	0.601605
0.594015	0.594015
0.604043	0.604043
0.593251	0.593251
0.950918	0.602652
0.602736	0.602736
0.135792	0.609970
0.604043	0.604043
0.596378	0.596378
0.596662	0.596662
0.602736	0.602736
0.601919	0.594982
0.606088	0.605311
0.624738	0.609479
1.096418	0.594982
0.604471	0.604471
0.596378	0.596378
0.842152	0.593251
0.591429	0.591429
0.604471	0.604471
0.596662	0.596662
0.679663	0.602652
0.593251	0.593251
0.592095	0.592095
0.604471	0.604471
0.858755	0.608001
1.615710	0.596972
0.594015	0.594015
0.596378	0.596378
0.601986	0.601986
0.604471	0.604471
0.593251	0.593251
0.935952	0.591211
0.602736	0.602736
0.596378	0.596378
0.591429	0.591429
0.593251	0.593251
0.596378	0.596378
0.798785	0.605311
1.084122	0.594982
0.774502	0.609479
0.592095	0.592095
0.596378	0.596378
0.599146	0.599146
0.593251	0.593251
0.740720	0.608001
0.594015	0.594015
0.596378	0.596378
0.596378	0.596378
0.592095	0.592095
0.787289	0.608001
0.608184	0.608001
0.596662	0.596662
1.084477	0.609479
0.593251	0.593251
0.610050	0.602652
0.609970	0.609970
0.592095	0.592095
0.592095	0.592095
0.681185	0.601605
0.694613	0.605311
0.592095	0.592095
1.049401	0.593251
0.593251	0.593251
0.602736	0.602736
0.619962	0.602652
0.599146	0.599146
1.072134	0.601981
0.591429	0.591429
0.596662	0.596662
0.596662	0.596662
0.604471	0.604471
0.604471	0.604471
0.593251	0.593251
0.602736	0.602736
0.596378	0.596378
0.596378	0.596378
0.599146	0.599146
0.604471	0.604471
0.594015	0.594015
0.596662	0.596662
0.609970	0.609970
0.596378	0.596378
0.596378	0.596378
0.596378	0.596378
0.592095	0.592095
0.596662	0.596662
0.594015	0.594015
0.596378	0.596378
0.592095	0.592095
0.662078	0.605311
0.594790	0.594790
0.855491	0.591429
0.593251	0.593251
0.594015	0.594015
0.594015	0.594015
0.602736	0.602736
0.594015	0.594015
0.608708	0.604043
0.602736	0.602736
0.609970	0.609970
0.594015	0.594015
0.594015	0.594015
0.599146	0.599146
0.592095	0.592095
0.593251	0.593251
0.604471	0.604471
0.592095	0.592095
0.594015	0.594015
0.596662	0.596662
0.596378	0.596378
0.594015	0.594015
0.594015	0.594015
0.596662	0.596662
0.594015	0.594015
0.594015	0.594015
0.593251	0.593251
0.594790	0.594790
0.596662	0.596662
0.594015	0.594015
0.596378	0.596378
0.594015	0.594015
0.596378	0.596378
0.592095	0.592095
0.604471	0.604471
0.602736	0.602736
0.594015	0.594015
0.599146	0.599146
0.594015	0.594015
0.604471	0.604471
0.599146	0.599146
0.604471	0.604471
0.596378	0.596378
0.612661	0.602652
0.591429	0.591429
0.000000	0.602736
0.599146	0.599146
0.594015	0.594015
0.596378	0.596378
0.609970	0.609970
0.596662	0.596662
0.593251	0.593251
0.599146	0.599146
0.643070	0.594982
0.820246	0.591429
0.593251	0.593251
0.599146	0.599146
0.594790	0.594790
0.594015	0.594015
0.593251	0.593251
0.609970	0.609970
0.594790	0.594790
0.596378	0.596378
0.602736	0.602736
0.594015	0.594015
0.858755	0.608001
0.596378	0.596378
0.613416	0.608001
0.599146	0.599146
0.596662	0.596662
0.594015	0.594015
0.624811	0.595589
0.750066	0.596972
0.591429	0.591429
0.593251	0.593251
0.964810	0.601986
0.609970	0.609970
0.596378	0.596378
0.604471	0.604471
0.596662	0.596662
0.596662	0.596662
0.596662	0.596662
0.592095	0.592095
0.596378	0.596378
0.596378	0.596378
0.604471	0.604471
0.774897	0.593251
0.609970	0.609970
0.596378	0.596378
0.594015	0.594015
0.604043	0.604043
0.594015	0.594015
0.592095	0.592095
0.596839	0.594790
0.756557	0.601981
0.596378	0.596378
0.732473	0.596972
0.594015	0.594015
0.604690	0.604471
0.592095	0.592095
0.593251	0.593251
0.592095	0.592095
0.825589	0.602652
0.602736	0.602736
0.594015	0.594015
0.604471	0.604471
0.609970	0.609970
0.594790	0.594790
0.592095	0.592095
0.594015	0.594015
0.604471	0.604471
0.835538	0.605311
0.599146	0.599146
0.596378	0.596378
0.602736	0.602736
0.593251	0.593251
0.600084	0.594790
0.594790	0.594790
0.599146	0.599146
0.594015	0.594015
0.592095	0.592095
0.594015	0.594015
0.141277	0.591211
0.916580	0.596972
0.593251	0.593251
0.599146	0.599146
0.602736	0.602736
0.593251	0.593251
0.596662	0.596662
0.592095	0.592095
0.609970	0.609970
0.596378	0.596378
0.599146	0.599146
0.594015	0.594015
0.757521	0.595589
0.888309	0.605311
0.802697	0.601605
0.594015	0.594015
0.599146	0.599146
0.593251	0.593251
0.596378	0.596378
0.599146	0.599146
0.604471	0.604471
0.656365	0.609479
0.596378	0.596378
0.594015	0.594015
0.592095	0.592095
0.596662	0.596662
0.609970	0.609970
0.604471	0.604471
0.592095	0.592095
0.593251	0.593251
0.602736	0.602736
0.599146	0.599146
0.592095	0.592095
0.604471	0.604471
0.594015	0.594015
0.626149	0.601605
0.596378	0.596378
0.599146	0.599146
0.604471	0.604471
0.592095	0.592095
0.599146	0.599146
0.604471	0.604471
0.885518	0.594982
0.780458	0.591211
0.596378	0.596378
0.602671	0.591211
0.596378	0.596378
0.599146	0.599146
0.604471	0.604471
0.594015	0.594015
0.595285	0.594790
0.609970	0.609970
0.604471	0.604471
0.599146	0.599146
0.593251	0.593251
0.596662	0.596662
0.592095	0.592095
1.661517	0.601986
0.594015	0.594015
0.594790	0.594790
0.604471	0.604471
0.599146	0.599146
0.691010	0.601981
0.602736	0.602736
0.593251	0.593251
0.602736	0.602736
0.602736	0.602736
0.604471	0.604471
0.592095	0.592095
0.602736	0.602736
0.592095	0.592095
0.593251	0.593251
0.602736	0.602736
0.594015	0.594015
0.596662	0.596662
0.609970	0.609970
0.592095	0.592095
0.591429	0.591429
0.593251	0.593251
0.593251	0.593251
0.602736	0.602736
0.594015	0.594015
0.599146	0.599146
0.599146	0.599146
0.596378	0.596378
0.593251	0.593251
0.609970	0.609970
0.798570	0.605311
0.604471	0.604471
0.614452	0.608001
1.043003	0.601605
0.604471	0.604471
0.594015	0.594015
0.596378	0.596378
0.596378	0.596378
0.883896	0.609479
0.591429	0.591429
0.604471	0.604471
0.596378	0.596378
0.596662	0.596662
0.591760	0.591429
0.593251	0.593251
0.592095	0.592095
0.604043	0.604043
0.609970	0.609970
0.594015	0.594015
0.596378	0.596378
0.591429	0.591429
0.593251	0.593251
0.604471	0.604471
0.604471	0.604471
0.596378	0.596378
0.596378	0.596378
0.593251	0.593251
0.594015	0.594015
0.604471	0.604471
0.592095	0.592095
0.593251	0.593251
0.602736	0.602736
0.594015	0.594015
0.609970	0.609970
0.851702	0.591211
0.604471	0.604471
0.594015	0.594015
0.786835	0.591211
0.593251	0.593251
0.592095	0.592095
0.592095	0.592095
0.592095	0.592095
0.594790	0.594790
0.886914	0.609479
0.594015	0.594015
0.594015	0.594015
0.592095	0.592095
0.592095	0.592095
0.871885	0.609970
0.594015	0.594015
1.482800	0.601986
0.609970	0.609970
0.594790	0.594790
0.604471	0.604471
0.594790	0.594790
0.615174	0.594790
1.168720	0.609479
0.596378	0.596378
0.602736	0.602736
0.670041	0.596972
0.593251	0.593251
0.604471	0.604471
0.592095	0.592095
0.609970	0.609970
0.599146	0.599146
0.594015	0.594015
0.593251	0.593251
0.593251	0.593251
0.609970	0.609970
0.632124	0.601981
0.604471	0.604471
1.266185	0.608001
0.594015	0.594015
0.609970	0.609970
0.702209	0.596972
0.596378	0.596378
0.596662	0.596662
0.604043	0.604043
0.594015	0.594015
0.593251	0.593251
0.594015	0.594015
0.747443	0.593251
0.596662	0.596662
0.591429	0.591429
0.596662	0.596662
0.596662	0.596662
0.594015	0.594015
1.002606	0.605311
0.596378	0.596378
0.592095	0.592095
0.604043	0.604043
0.962421	0.608001
0.604471	0.604471
0.593251	0.593251
0.606186	0.602652
0.599146	0.599146
0.592095	0.592095
1.062434	0.596972
0.593251	0.593251
0.592095	0.592095
0.594015	0.594015
0.599146	0.599146
0.627056	0.594982
0.596378	0.596378
0.593251	0.593251
0.609545	0.591429
0.592095	0.592095
0.593251	0.593251
0.907340	0.609970
0.661583	0.602652
0.602736	0.602736
0.593251	0.593251
0.594015	0.594015
0.592095	0.592095
0.593251	0.593251
0.594015	0.594015
0.641621	0.593251
0.594790	0.594790
0.592095	0.592095
0.594015	0.594015
0.596662	0.596662
0.604471	0.604471
0.647745	0.601986
0.596662	0.596662
0.596378	0.596378
0.609970	0.609970
0.592095	0.592095
0.609970	0.609970
0.594015	0.594015
0.611895	0.594790
0.594015	0.594015
0.602707	0.601981
0.599146	0.599146
0.592095	0.592095
0.604471	0.604471
0.592095	0.592095
0.594015	0.594015
0.604471	0.604471
0.604471	0.604471
0.599146	0.599146
0.596378	0.596378
0.596662	0.596662
0.598450	0.596972
0.593251	0.593251
0.594015	0.594015
0.593251	0.593251
0.604471	0.604471
0.596378	0.596378
0.602296	0.601981
0.596378	0.596378
0.596662	0.596662
0.351207	0.605311
0.592095	0.592095
0.593251	0.593251
0.592095	0.592095
0.592095	0.592095
0.602736	0.602736
0.608553	0.596662
0.596378	0.596378
0.664321	0.601981
0.594790	0.594790
0.615802	0.595589
0.609970	0.609970
0.751782	0.595589
0.624164	0.608001
0.687109	0.605311
0.596662	0.596662
0.596662	0.596662
0.593251	0.593251
0.594790	0.594790
0.604471	0.604471
0.593251	0.593251
0.599146	0.599146
0.593251	0.593251
0.596662	0.596662
0.596378	0.596378
0.737776	0.601981
0.595206	0.594982
0.591429	0.591429
0.602736	0.602736
0.596378	0.596378
0.593251	0.593251
0.594015	0.594015
0.593251	0.593251
0.591429	0.591429
-0.009659	0.601986
1.482800	0.601986
0.594015	0.594015
0.596662	0.596662
0.604471	0.604471
0.592095	0.592095
0.679663	0.602652
0.609970	0.609970
0.604471	0.604471
0.592095	0.592095
0.604471	0.604471
0.604471	0.604471
1.233187	0.601605
0.609970	0.609970
0.596378	0.596378
0.596662	0.596662
0.594015	0.594015
0.833935	0.595589
0.596662	0.596662
0.592095	0.592095
0.592095	0.592095
0.594790	0.594790
0.606544	0.596972
0.603005	0.594982
1.448370	0.593251
0.592095	0.592095
0.956314	0.602652
0.599146	0.599146
0.596662	0.596662
0.596662	0.596662
0.599146	0.599146
0.604471	0.604471
0.592095	0.592095
0.596378	0.596378
0.591429	0.591429
0.704159	0.596972
0.592095	0.592095
0.594015	0.594015
0.596378	0.596378
0.592095	0.592095
0.592095	0.592095
0.596378	0.596378
0.906882	0.593251
0.774120	0.605311
0.714230	0.604043
0.594790	0.594790
0.596378	0.596378
0.604471	0.604471
0.599146	0.599146
0.601986	0.601986
0.592095	0.592095
0.609970	0.609970
0.594790	0.594790
0.599146	0.599146
0.609970	0.609970
0.602736	0.602736
0.609970	0.609970
0.604043	0.604043
0.593251	0.593251
0.604471	0.604471
0.604471	0.604471
0.594015	0.594015
0.766773	0.593251
0.596662	0.596662
0.593251	0.593251
0.594790	0.594790
0.602736	0.602736
0.599146	0.599146
0.673556	0.596972
0.596378	0.596378
0.599146	0.599146
0.609970	0.609970
0.592095	0.592095
0.604471	0.604471
0.599146	0.599146
0.594015	0.594015
0.604471	0.604471
0.604471	0.604471
0.596378	0.596378
1.534363	0.596972
0.865168	0.593251
0.663078	0.601981
0.604471	0.604471
0.596662	0.596662
0.822099	0.608001
0.599146	0.599146
0.602736	0.602736
0.602736	0.602736
0.604471	0.604471
0.759319	0.601981
0.594015	0.594015
0.815366	0.604043
0.594015	0.594015
0.804208	0.605311
0.740622	0.591429
0.596662	0.596662
0.060820	0.602736
0.592095	0.592095
0.604043	0.604043
0.594015	0.594015
0.624311	0.602736
0.916964	0.605311
0.596378	0.596378
0.604471	0.604471
0.596378	0.596378
0.604471	0.604471
0.602736	0.602736
0.604471	0.604471
1.311538	0.591211
0.648300	0.601981
0.593251	0.593251
0.604471	0.604471
0.596662	0.596662
0.599146	0.599146
0.596662	0.596662
0.593251	0.593251
0.615174	0.594982
0.988772	0.591211
0.593251	0.593251
0.594015	0.594015
0.596378	0.596378
0.674037	0.609479
0.602736	0.602736
0.594015	0.594015
0.594015	0.594015
0.596378	0.596378
0.594015	0.594015
0.594015	0.594015
0.594790	0.594790
0.599146	0.599146
0.594015	0.594015
0.604471	0.604471
0.596662	0.596662
0.596662	0.596662
0.658986	0.601981
0.594015	0.594015
0.599146	0.599146
0.604471	0.604471
0.758848	0.591429
0.599146	0.599146
0.593251	0.593251
0.720195	0.591211
0.604471	0.604471
0.594790	0.594790
0.602736	0.602736
0.602736	0.602736
0.602736	0.602736
0.594790	0.594790
0.750525	0.602652
1.110796	0.593251
0.604471	0.604471
0.594790	0.594790
0.596662	0.596662
0.609970	0.609970
0.609970	0.609970
0.596378	0.596378
0.596378	0.596378
0.950634	0.601981
0.594015	0.594015
0.599146	0.599146
0.939594	0.592095
0.596378	0.596378
0.596662	0.596662
1.079966	0.608001
0.592095	0.592095
0.604471	0.604471
0.594015	0.594015
0.593251	0.593251
0.599146	0.599146
0.593251	0.593251
0.604471	0.604471
0.630067	0.609479
0.594015	0.594015
0.604471	0.604471
0.594790	0.594790
0.592095	0.592095
0.594015	0.594015
0.592095	0.592095
0.596378	0.596378
0.594015	0.594015
0.594015	0.594015
0.596662	0.596662
0.594015	0.594015
0.599146	0.599146
0.594015	0.594015
0.609970	0.609970
0.594015	0.594015
0.604471	0.604471
0.593251	0.593251
0.592095	0.592095
0.602736	0.602736
0.596378	0.596378
0.594015	0.594015
1.265739	0.602736
0.596662	0.596662
0.596378	0.596378
0.604471	0.604471
0.593251	0.593251
0.593251	0.593251
0.604471	0.604471
0.599146	0.599146
0.596378	0.596378
0.593251	0.593251
0.593251	0.593251
0.596662	0.596662
0.592095	0.592095
0.592095	0.592095
0.604043	0.604043
0.592268	0.592095
0.594015	0.594015
0.596662	0.596662
0.599146	0.599146
0.599146	0.599146
0.602736	0.602736
0.596662	0.596662
0.594015	0.594015
0.594015	0.594015
0.592095	0.592095
0.596662	0.596662
0.594015	0.594015
0.992041	0.604043
0.592095	0.592095
0.594015	0.594015
0.599146	0.599146
0.798084	0.596972
0.594015	0.594015
0.591429	0.591429
0.594015	0.594015
0.594790	0.594790
0.594015	0.594015
0.594015	0.594015
0.754904	0.608001
0.608537	0.601986
0.593251	0.593251
1.031507	0.601981
0.592095	0.592095
0.593251	0.593251
0.596378	0.596378
0.604471	0.604471
0.594790	0.594790
0.599146	0.599146
0.596662	0.596662
0.594015	0.594015
0.594015	0.594015
0.594015	0.594015
0.604471	0.604471
0.594790	0.594790
0.739944	0.594982
0.596378	0.596378
0.609970	0.609970
0.592095	0.592095
0.621311	0.602652
0.604471	0.604471
0.873636	0.596662
0.599146	0.599146
0.604471	0.604471
0.602736	0.602736
0.593251	0.593251
0.627275	0.602652
0.596378	0.596378
0.594015	0.594015
0.601986	0.601986
0.599146	0.599146
0.594015	0.594015
0.593251	0.593251
0.604471	0.604471
0.592095	0.592095
0.606017	0.605311
0.596378	0.596378
0.594790	0.594790
0.594790	0.594790
0.594015	0.594015
0.592095	0.592095
0.592095	0.592095
0.591429	0.591429
0.596378	0.596378
0.604471	0.604471
0.592095	0.592095
0.594015	0.594015
0.630109	0.605311
0.593251	0.593251
0.759437	0.596972
0.594015	0.594015
0.599146	0.599146
0.592095	0.592095
0.609970	0.609970
0.593251	0.593251
0.596378	0.596378
0.702905	0.601981
0.593251	0.593251
0.594790	0.594790
0.596378	0.596378
0.962101	0.601986
0.596662	0.596662
0.596662	0.596662
0.592095	0.592095
0.599146	0.599146
0.493789	0.596378
1.317807	0.604043
0.593251	0.593251
0.599146	0.599146
0.604043	0.604043
0.596662	0.596662
0.593251	0.593251
0.594015	0.594015
0.591429	0.591429
0.599146	0.599146
0.604471	0.604471
0.593251	0.593251
0.596378	0.596378
0.599146	0.599146
0.593251	0.593251
0.604043	0.604043
0.081028	0.596972
0.596662	0.596662
0.652485	0.601981
0.599146	0.599146
0.602736	0.602736
0.609970	0.609970
0.593251	0.593251
0.594790	0.594790
0.593251	0.593251
0.663711	0.608001
1.172231	0.591211
0.629402	0.601981
0.594015	0.594015
0.604471	0.604471
0.594015	0.594015
0.647720	0.591211
0.599146	0.599146
0.596378	0.591429
0.317794	0.596662
0.594015	0.594015
0.596662	0.596662
0.599146	0.599146
0.604043	0.604043
0.594015	0.594015
0.635005	0.609479
0.596662	0.596662
0.604471	0.604471
0.592095	0.592095
0.593251	0.593251
0.603086	0.596972
0.592095	0.592095
0.592095	0.592095
0.596378	0.596378
0.604471	0.604471
0.623575	0.601981
0.594015	0.594015
0.594015	0.594015
0.596378	0.596378
0.594790	0.594790
0.596378	0.596378
0.609970	0.609970
0.604471	0.604471
0.599146	0.599146
0.596378	0.596378
0.596378	0.596378
0.596378	0.596378
0.604471	0.604471
0.609970	0.609970
0.594015	0.594015
0.604471	0.604471
0.599146	0.599146
0.594790	0.594790
0.594790	0.594790
0.592095	0.592095
0.599146	0.599146
0.608995	0.608001
0.604471	0.604471
0.596378	0.596378
1.322025	0.594982
0.604471	0.604471
0.604471	0.604471
0.599146	0.599146
0.599146	0.599146
0.593251	0.593251
0.592095	0.592095
0.616416	0.609479
0.604471	0.604471
0.604471	0.604471
0.604471	0.604471
0.609970	0.609970
0.596378	0.596378
0.593251	0.593251
0.592095	0.592095
0.620640	0.609479
0.604043	0.604043
0.604471	0.604471
0.596378	0.596378
0.610055	0.604043
0.594015	0.594015
0.593251	0.593251
0.591429	0.591429
0.596662	0.596662
-0.025476	0.609970
0.596378	0.596378
0.594790	0.594790
0.869541	0.609479
0.609970	0.609970
0.594015	0.594015
0.592095	0.592095
0.917507	0.604043
0.596662	0.596662
0.920638	0.609479
0.594790	0.594790
0.594015	0.594015
0.604471	0.604471
0.596662	0.596662
0.754904	0.608001
0.599146	0.599146
0.599146	0.599146
0.593251	0.593251
0.593251	0.593251
0.596378	0.596378
0.602736	0.602736
0.596378	0.596378
0.161289	0.594982
0.607994	0.593251
0.609970	0.609970
0.594790	0.594790
0.682856	0.608001
0.599146	0.599146
0.594015	0.594015
0.596378	0.596378
0.592095	0.592095
0.596378	0.596378
0.629037	0.608001
0.602736	0.602736
0.610054	0.609479
0.602736	0.602736
0.594015	0.594015
0.595050	0.593251
0.774004	0.596972
0.593251	0.593251
0.592095	0.592095
0.592095	0.592095
0.592095	0.592095
1.148781	0.593251
0.674013	0.609479
0.604471	0.604471
0.592095	0.592095
0.604471	0.604471
0.593251	0.593251
0.596662	0.596662
0.592095	0.592095
0.604471	0.604471
0.877244	0.596972
0.592095	0.592095
0.596378	0.596378
0.604471	0.604471
0.596378	0.596378
0.596662	0.596662
0.602736	0.602736
0.596378	0.596378
0.602736	0.602736
0.604471	0.604471
0.595589	0.595589
0.817672	0.605311
0.599146	0.599146
0.596662	0.596662
0.596378	0.596378
0.789134	0.601981
0.922452	0.601605
0.759355	0.609479
0.619903	0.609479
0.593251	0.593251
0.660889	0.605311
0.596378	0.596378
0.596662	0.596662
0.596378	0.596378
0.593251	0.593251
0.604043	0.604043
0.678627	0.593251
0.602736	0.602736
0.602736	0.602736
0.596662	0.596662
0.596378	0.596378
0.602736	0.602736
0.591429	0.591429
0.599146	0.599146
0.594015	0.594015
0.609970	0.609970
0.799225	0.595589
0.594015	0.594015
0.625856	0.608001
0.594015	0.594015
0.594015	0.594015
0.604043	0.604043
0.596662	0.596662
0.593251	0.593251
0.599146	0.599146
0.594015	0.594015
0.592095	0.592095
0.593251	0.593251
0.592095	0.592095
0.594790	0.594790
